%TF.GenerationSoftware,KiCad,Pcbnew,7.0.6-7.0.6~ubuntu22.04.1*%
%TF.CreationDate,2023-11-06T01:39:02+05:30*%
%TF.ProjectId,voltage_current_measurement,766f6c74-6167-4655-9f63-757272656e74,rev?*%
%TF.SameCoordinates,Original*%
%TF.FileFunction,Soldermask,Bot*%
%TF.FilePolarity,Negative*%
%FSLAX46Y46*%
G04 Gerber Fmt 4.6, Leading zero omitted, Abs format (unit mm)*
G04 Created by KiCad (PCBNEW 7.0.6-7.0.6~ubuntu22.04.1) date 2023-11-06 01:39:02*
%MOMM*%
%LPD*%
G01*
G04 APERTURE LIST*
%ADD10C,1.600000*%
%ADD11R,1.700000X1.700000*%
%ADD12O,1.700000X1.700000*%
%ADD13C,2.600000*%
%ADD14R,2.600000X2.600000*%
G04 APERTURE END LIST*
D10*
%TO.C,RV1*%
X72100000Y-53400000D03*
X70633330Y-58400000D03*
%TD*%
D11*
%TO.C,J3*%
X121100000Y-79400000D03*
D12*
X121100000Y-76860000D03*
X121100000Y-74320000D03*
X121100000Y-71780000D03*
X121100000Y-69240000D03*
X121100000Y-66700000D03*
X121100000Y-64160000D03*
X121100000Y-61620000D03*
X121100000Y-59080000D03*
X121100000Y-56540000D03*
X121100000Y-54000000D03*
X121100000Y-51460000D03*
%TD*%
D11*
%TO.C,J5*%
X100225000Y-78800000D03*
D12*
X102765000Y-78800000D03*
%TD*%
D13*
%TO.C,J2*%
X61100000Y-72300000D03*
D14*
X61100000Y-77380000D03*
%TD*%
%TO.C,J1*%
X61100000Y-58500000D03*
D13*
X61100000Y-53420000D03*
%TD*%
D11*
%TO.C,J4*%
X113760000Y-51520000D03*
D12*
X113760000Y-54060000D03*
X113760000Y-56600000D03*
X113760000Y-59140000D03*
X113760000Y-61680000D03*
X113760000Y-64220000D03*
X113760000Y-66760000D03*
X113760000Y-69300000D03*
X113760000Y-71840000D03*
X113760000Y-74380000D03*
X113760000Y-76920000D03*
X113760000Y-79460000D03*
X116300000Y-51520000D03*
X116300000Y-54060000D03*
X116300000Y-56600000D03*
X116300000Y-59140000D03*
X116300000Y-61680000D03*
X116300000Y-64220000D03*
X116300000Y-66760000D03*
X116300000Y-69300000D03*
X116300000Y-71840000D03*
X116300000Y-74380000D03*
X116300000Y-76920000D03*
X116300000Y-79460000D03*
%TD*%
M02*
