%TF.GenerationSoftware,KiCad,Pcbnew,7.0.6-7.0.6~ubuntu22.04.1*%
%TF.CreationDate,2023-11-06T01:39:02+05:30*%
%TF.ProjectId,voltage_current_measurement,766f6c74-6167-4655-9f63-757272656e74,rev?*%
%TF.SameCoordinates,Original*%
%TF.FileFunction,Profile,NP*%
%FSLAX46Y46*%
G04 Gerber Fmt 4.6, Leading zero omitted, Abs format (unit mm)*
G04 Created by KiCad (PCBNEW 7.0.6-7.0.6~ubuntu22.04.1) date 2023-11-06 01:39:02*
%MOMM*%
%LPD*%
G01*
G04 APERTURE LIST*
%TA.AperFunction,Profile*%
%ADD10C,0.150000*%
%TD*%
G04 APERTURE END LIST*
D10*
X54800000Y-48300000D02*
X124000000Y-48300000D01*
X124000000Y-82400000D01*
X54800000Y-82400000D01*
X54800000Y-48300000D01*
M02*
